testing/tek0014.csv

Model,MDO4104C
Firmware Version,1.06

Waveform Type,RF_FD
Point Format,Y
Horizontal Units,Hz
Horizontal Scale,2e+07
,
Sample Interval,200000
Record Length,1001
Gating,0.099900099900% to 100.0%
Probe Attenuation,1
Vertical Units,dBm
Vertical Offset,0
Vertical Scale,10
Vertical Position,0
Center Frequency,5.7e+09
Span,2e+08
Reference Level,20
Label,
FREQUENCY,FD NORM
5.6000000000e+09,-55.0286
5.6002000000e+09,-50.4992
5.6004000000e+09,-48.0584
5.6006000000e+09,-46.9051
5.6008000000e+09,-46.5803
5.6010000000e+09,-46.7655
5.6012000000e+09,-47.2583
5.6014000000e+09,-48.0126
5.6016000000e+09,-49.1555
5.6018000000e+09,-50.9591
5.6020000000e+09,-53.8355
5.6022000000e+09,-58.3706
5.6024000000e+09,-63.2751
5.6026000000e+09,-60.5299
5.6028000000e+09,-57.0247
5.6030000000e+09,-55.0675
5.6032000000e+09,-54.1959
5.6034000000e+09,-54.2472
5.6036000000e+09,-55.2412
5.6038000000e+09,-57.1884
5.6040000000e+09,-59.7046
5.6042000000e+09,-61.3018
5.6044000000e+09,-61.0223
5.6046000000e+09,-60.3096
5.6048000000e+09,-60.0117
5.6050000000e+09,-60.0686
5.6052000000e+09,-60.3713
5.6054000000e+09,-61.0836
5.6056000000e+09,-62.1794
5.6058000000e+09,-62.1613
5.6060000000e+09,-59.5168
5.6062000000e+09,-55.9089
5.6064000000e+09,-52.4718
5.6066000000e+09,-49.5324
5.6068000000e+09,-47.3083
5.6070000000e+09,-45.9137
5.6072000000e+09,-45.3627
5.6074000000e+09,-45.6098
5.6076000000e+09,-46.5656
5.6078000000e+09,-48.0269
5.6080000000e+09,-49.3673
5.6082000000e+09,-49.3474
5.6084000000e+09,-47.7584
5.6086000000e+09,-45.7885
5.6088000000e+09,-44.1126
5.6090000000e+09,-42.8344
5.6092000000e+09,-41.9033
5.6094000000e+09,-41.2727
5.6096000000e+09,-40.9389
5.6098000000e+09,-40.9453
5.6100000000e+09,-41.3745
5.6102000000e+09,-42.3312
5.6104000000e+09,-43.9162
5.6106000000e+09,-46.1827
5.6108000000e+09,-49.044
5.6110000000e+09,-52.1171
5.6112000000e+09,-54.8185
5.6114000000e+09,-57.1139
5.6116000000e+09,-59.6971
5.6118000000e+09,-63.073
5.6120000000e+09,-65.0169
5.6122000000e+09,-62.2171
5.6124000000e+09,-59.1071
5.6126000000e+09,-56.9014
5.6128000000e+09,-55.2383
5.6130000000e+09,-54.1047
5.6132000000e+09,-53.8729
5.6134000000e+09,-55.0512
5.6136000000e+09,-58.4821
5.6138000000e+09,-67.3678
5.6140000000e+09,-68.4235
5.6142000000e+09,-60.416
5.6144000000e+09,-57.818
5.6146000000e+09,-57.0528
5.6148000000e+09,-57.1732
5.6150000000e+09,-57.7267
5.6152000000e+09,-57.9881
5.6154000000e+09,-56.9611
5.6156000000e+09,-55.0207
5.6158000000e+09,-53.183
5.6160000000e+09,-51.8304
5.6162000000e+09,-51.0524
5.6164000000e+09,-50.9475
5.6166000000e+09,-51.6168
5.6168000000e+09,-52.9342
5.6170000000e+09,-53.874
5.6172000000e+09,-52.8671
5.6174000000e+09,-50.8291
5.6176000000e+09,-49.259
5.6178000000e+09,-48.5879
5.6180000000e+09,-48.8867
5.6182000000e+09,-50.1978
5.6184000000e+09,-52.5815
5.6186000000e+09,-56.0351
5.6188000000e+09,-60.2791
5.6190000000e+09,-65.2182
5.6192000000e+09,-71.262
5.6194000000e+09,-63.3582
5.6196000000e+09,-57.2532
5.6198000000e+09,-54.0154
5.6200000000e+09,-52.7067
5.6202000000e+09,-53.0944
5.6204000000e+09,-55.1942
5.6206000000e+09,-57.9908
5.6208000000e+09,-57.065
5.6210000000e+09,-54.6884
5.6212000000e+09,-54.2494
5.6214000000e+09,-56.757
5.6216000000e+09,-67.5225
5.6218000000e+09,-60.5276
5.6220000000e+09,-52.7002
5.6222000000e+09,-49.341
5.6224000000e+09,-47.9044
5.6226000000e+09,-47.7546
5.6228000000e+09,-48.6971
5.6230000000e+09,-50.81
5.6232000000e+09,-54.6256
5.6234000000e+09,-61.8567
5.6236000000e+09,-60.7593
5.6238000000e+09,-53.7975
5.6240000000e+09,-50.1014
5.6242000000e+09,-48.106
5.6244000000e+09,-47.3306
5.6246000000e+09,-47.6542
5.6248000000e+09,-49.1155
5.6250000000e+09,-51.8435
5.6252000000e+09,-55.6455
5.6254000000e+09,-57.4833
5.6256000000e+09,-55.288
5.6258000000e+09,-53.0928
5.6260000000e+09,-51.8154
5.6262000000e+09,-51.2824
5.6264000000e+09,-51.296
5.6266000000e+09,-51.5879
5.6268000000e+09,-51.7413
5.6270000000e+09,-51.419
5.6272000000e+09,-50.7453
5.6274000000e+09,-50.1418
5.6276000000e+09,-49.9099
5.6278000000e+09,-50.113
5.6280000000e+09,-50.6158
5.6282000000e+09,-51.1898
5.6284000000e+09,-51.7119
5.6286000000e+09,-52.2527
5.6288000000e+09,-52.8971
5.6290000000e+09,-53.5494
5.6292000000e+09,-53.9194
5.6294000000e+09,-53.7049
5.6296000000e+09,-52.8764
5.6298000000e+09,-51.6974
5.6300000000e+09,-50.4411
5.6302000000e+09,-49.2753
5.6304000000e+09,-48.3548
5.6306000000e+09,-47.8648
5.6308000000e+09,-47.9673
5.6310000000e+09,-48.7343
5.6312000000e+09,-50.0875
5.6314000000e+09,-51.768
5.6316000000e+09,-53.5308
5.6318000000e+09,-55.6199
5.6320000000e+09,-59.0853
5.6322000000e+09,-66.872
5.6324000000e+09,-63.8352
5.6326000000e+09,-56.021
5.6328000000e+09,-52.0297
5.6330000000e+09,-49.825
5.6332000000e+09,-48.76
5.6334000000e+09,-48.4797
5.6336000000e+09,-48.7085
5.6338000000e+09,-49.2846
5.6340000000e+09,-50.2955
5.6342000000e+09,-52.1811
5.6344000000e+09,-55.9808
5.6346000000e+09,-66.0316
5.6348000000e+09,-62.7771
5.6350000000e+09,-55.0672
5.6352000000e+09,-52.0074
5.6354000000e+09,-50.7345
5.6356000000e+09,-50.3985
5.6358000000e+09,-50.5979
5.6360000000e+09,-51.2415
5.6362000000e+09,-52.4468
5.6364000000e+09,-54.3395
5.6366000000e+09,-56.8718
5.6368000000e+09,-59.6434
5.6370000000e+09,-61.8865
5.6372000000e+09,-63.0919
5.6374000000e+09,-63.3462
5.6376000000e+09,-62.7828
5.6378000000e+09,-61.5726
5.6380000000e+09,-60.0921
5.6382000000e+09,-58.7187
5.6384000000e+09,-57.6061
5.6386000000e+09,-56.6518
5.6388000000e+09,-55.6179
5.6390000000e+09,-54.3545
5.6392000000e+09,-52.9613
5.6394000000e+09,-51.6954
5.6396000000e+09,-50.7875
5.6398000000e+09,-50.3681
5.6400000000e+09,-50.4847
5.6402000000e+09,-51.1541
5.6404000000e+09,-52.4455
5.6406000000e+09,-54.6372
5.6408000000e+09,-58.6162
5.6410000000e+09,-68.161
5.6412000000e+09,-64.1799
5.6414000000e+09,-56.7369
5.6416000000e+09,-53.3577
5.6418000000e+09,-51.6669
5.6420000000e+09,-50.8566
5.6422000000e+09,-50.4057
5.6424000000e+09,-50.0453
5.6426000000e+09,-49.8806
5.6428000000e+09,-50.231
5.6430000000e+09,-51.4209
5.6432000000e+09,-53.808
5.6434000000e+09,-57.9818
5.6436000000e+09,-62.8415
5.6438000000e+09,-58.9384
5.6440000000e+09,-54.5445
5.6442000000e+09,-51.8811
5.6444000000e+09,-50.2588
5.6446000000e+09,-49.3332
5.6448000000e+09,-49.0005
5.6450000000e+09,-49.28
5.6452000000e+09,-50.1876
5.6454000000e+09,-51.5511
5.6456000000e+09,-52.7546
5.6458000000e+09,-53.0207
5.6460000000e+09,-52.5054
5.6462000000e+09,-51.853
5.6464000000e+09,-51.2009
5.6466000000e+09,-50.3553
5.6468000000e+09,-49.2795
5.6470000000e+09,-48.2088
5.6472000000e+09,-47.4314
5.6474000000e+09,-47.1664
5.6476000000e+09,-47.5805
5.6478000000e+09,-48.8048
5.6480000000e+09,-50.8196
5.6482000000e+09,-52.8539
5.6484000000e+09,-53.0221
5.6486000000e+09,-51.6718
5.6488000000e+09,-50.6057
5.6490000000e+09,-50.3516
5.6492000000e+09,-50.867
5.6494000000e+09,-51.9786
5.6496000000e+09,-53.3556
5.6498000000e+09,-54.3282
5.6500000000e+09,-54.2024
5.6502000000e+09,-53.279
5.6504000000e+09,-52.4322
5.6506000000e+09,-52.1908
5.6508000000e+09,-52.7318
5.6510000000e+09,-53.9671
5.6512000000e+09,-55.354
5.6514000000e+09,-55.8967
5.6516000000e+09,-55.3692
5.6518000000e+09,-54.4682
5.6520000000e+09,-53.4597
5.6522000000e+09,-52.1854
5.6524000000e+09,-50.6548
5.6526000000e+09,-49.1752
5.6528000000e+09,-48.0707
5.6530000000e+09,-47.5186
5.6532000000e+09,-47.5452
5.6534000000e+09,-48.0336
5.6536000000e+09,-48.7376
5.6538000000e+09,-49.4001
5.6540000000e+09,-49.9136
5.6542000000e+09,-50.2131
5.6544000000e+09,-50.0681
5.6546000000e+09,-49.3648
5.6548000000e+09,-48.4398
5.6550000000e+09,-47.7222
5.6552000000e+09,-47.3958
5.6554000000e+09,-47.4054
5.6556000000e+09,-47.5396
5.6558000000e+09,-47.5593
5.6560000000e+09,-47.4145
5.6562000000e+09,-47.3149
5.6564000000e+09,-47.5255
5.6566000000e+09,-48.1419
5.6568000000e+09,-48.9386
5.6570000000e+09,-49.3564
5.6572000000e+09,-49.0803
5.6574000000e+09,-48.5789
5.6576000000e+09,-48.519
5.6578000000e+09,-49.3469
5.6580000000e+09,-51.4645
5.6582000000e+09,-55.6994
5.6584000000e+09,-66.0836
5.6586000000e+09,-64.7402
5.6588000000e+09,-56.7043
5.6590000000e+09,-53.5291
5.6592000000e+09,-51.94
5.6594000000e+09,-51.1872
5.6596000000e+09,-51.0638
5.6598000000e+09,-51.6202
5.6600000000e+09,-53.0879
5.6602000000e+09,-55.9173
5.6604000000e+09,-60.9591
5.6606000000e+09,-66.3054
5.6608000000e+09,-62.2698
5.6610000000e+09,-59.5997
5.6612000000e+09,-58.7705
5.6614000000e+09,-57.8076
5.6616000000e+09,-55.5868
5.6618000000e+09,-53.1463
5.6620000000e+09,-51.3308
5.6622000000e+09,-50.2561
5.6624000000e+09,-49.7577
5.6626000000e+09,-49.4682
5.6628000000e+09,-48.8885
5.6630000000e+09,-47.8511
5.6632000000e+09,-46.7328
5.6634000000e+09,-45.9631
5.6636000000e+09,-45.7329
5.6638000000e+09,-46.0513
5.6640000000e+09,-46.8343
5.6642000000e+09,-47.9757
5.6644000000e+09,-49.4399
5.6646000000e+09,-51.3986
5.6648000000e+09,-54.4745
5.6650000000e+09,-60.9093
5.6652000000e+09,-70.6433
5.6654000000e+09,-55.6598
5.6656000000e+09,-50.2789
5.6658000000e+09,-47.1367
5.6660000000e+09,-45.1854
5.6662000000e+09,-44.0539
5.6664000000e+09,-43.5401
5.6666000000e+09,-43.4968
5.6668000000e+09,-43.8227
5.6670000000e+09,-44.4784
5.6672000000e+09,-45.4665
5.6674000000e+09,-46.7363
5.6676000000e+09,-48.009
5.6678000000e+09,-48.7153
5.6680000000e+09,-48.5739
5.6682000000e+09,-48.0893
5.6684000000e+09,-47.8988
5.6686000000e+09,-48.3389
5.6688000000e+09,-49.5501
5.6690000000e+09,-51.5933
5.6692000000e+09,-54.4378
5.6694000000e+09,-57.7019
5.6696000000e+09,-60.2896
5.6698000000e+09,-61.846
5.6700000000e+09,-63.6198
5.6702000000e+09,-64.3937
5.6704000000e+09,-61.5345
5.6706000000e+09,-58.6487
5.6708000000e+09,-57.1586
5.6710000000e+09,-56.6924
5.6712000000e+09,-56.5233
5.6714000000e+09,-56.1684
5.6716000000e+09,-55.8729
5.6718000000e+09,-55.9202
5.6720000000e+09,-55.8904
5.6722000000e+09,-55.2412
5.6724000000e+09,-54.5304
5.6726000000e+09,-54.6762
5.6728000000e+09,-56.1022
5.6730000000e+09,-58.2598
5.6732000000e+09,-58.1892
5.6734000000e+09,-55.7281
5.6736000000e+09,-53.7281
5.6738000000e+09,-52.7635
5.6740000000e+09,-52.7709
5.6742000000e+09,-53.7862
5.6744000000e+09,-56.1329
5.6746000000e+09,-60.7397
5.6748000000e+09,-65.8145
5.6750000000e+09,-59.5108
5.6752000000e+09,-55.2724
5.6754000000e+09,-53.3857
5.6756000000e+09,-53.2327
5.6758000000e+09,-54.8614
5.6760000000e+09,-59.0973
5.6762000000e+09,-69.3924
5.6764000000e+09,-64.8605
5.6766000000e+09,-60.4557
5.6768000000e+09,-60.9151
5.6770000000e+09,-66.3261
5.6772000000e+09,-78.8518
5.6774000000e+09,-63.4387
5.6776000000e+09,-57.0942
5.6778000000e+09,-51.6849
5.6780000000e+09,-47.3937
5.6782000000e+09,-44.4037
5.6784000000e+09,-42.5998
5.6786000000e+09,-41.8544
5.6788000000e+09,-42.0586
5.6790000000e+09,-42.5137
5.6792000000e+09,-39.5731
5.6794000000e+09,-31.5294
5.6796000000e+09,-22.7669
5.6798000000e+09,-15.1041
5.6800000000e+09,-8.78123
5.6802000000e+09,-3.72374
5.6804000000e+09,0.175078
5.6806000000e+09,3.00153
5.6808000000e+09,4.8161
5.6810000000e+09,5.65618
5.6812000000e+09,5.53881
5.6814000000e+09,4.46203
5.6816000000e+09,2.40448
5.6818000000e+09,-0.676975
5.6820000000e+09,-4.85255
5.6822000000e+09,-10.2295
5.6824000000e+09,-16.9708
5.6826000000e+09,-25.3329
5.6828000000e+09,-35.703
5.6830000000e+09,-46.8205
5.6832000000e+09,-48.1668
5.6834000000e+09,-46.8882
5.6836000000e+09,-46.6285
5.6838000000e+09,-47.4118
5.6840000000e+09,-49.2096
5.6842000000e+09,-51.7961
5.6844000000e+09,-54.0808
5.6846000000e+09,-54.4232
5.6848000000e+09,-53.5761
5.6850000000e+09,-52.8333
5.6852000000e+09,-52.3955
5.6854000000e+09,-52.1122
5.6856000000e+09,-51.8837
5.6858000000e+09,-51.7873
5.6860000000e+09,-52.0939
5.6862000000e+09,-53.2345
5.6864000000e+09,-55.8659
5.6866000000e+09,-61.0607
5.6868000000e+09,-62.8225
5.6870000000e+09,-56.9648
5.6872000000e+09,-53.6975
5.6874000000e+09,-52.1484
5.6876000000e+09,-51.513
5.6878000000e+09,-51.2771
5.6880000000e+09,-51.1393
5.6882000000e+09,-51.0505
5.6884000000e+09,-51.1199
5.6886000000e+09,-51.3731
5.6888000000e+09,-51.5467
5.6890000000e+09,-51.2881
5.6892000000e+09,-50.7617
5.6894000000e+09,-50.53
5.6896000000e+09,-50.9436
5.6898000000e+09,-51.9076
5.6900000000e+09,-52.7385
5.6902000000e+09,-52.5127
5.6904000000e+09,-51.2948
5.6906000000e+09,-49.7726
5.6908000000e+09,-48.3107
5.6910000000e+09,-47.0608
5.6912000000e+09,-46.1484
5.6914000000e+09,-45.6786
5.6916000000e+09,-45.6927
5.6918000000e+09,-46.1121
5.6920000000e+09,-46.6905
5.6922000000e+09,-47.1135
5.6924000000e+09,-47.3079
5.6926000000e+09,-47.4687
5.6928000000e+09,-47.6567
5.6930000000e+09,-47.6262
5.6932000000e+09,-47.2279
5.6934000000e+09,-46.7839
5.6936000000e+09,-46.7741
5.6938000000e+09,-47.5363
5.6940000000e+09,-49.33
5.6942000000e+09,-52.5387
5.6944000000e+09,-58.1087
5.6946000000e+09,-68.0694
5.6948000000e+09,-63.2811
5.6950000000e+09,-59.2568
5.6952000000e+09,-58.0365
5.6954000000e+09,-58.0537
5.6956000000e+09,-58.4555
5.6958000000e+09,-58.7001
5.6960000000e+09,-59.0263
5.6962000000e+09,-59.8192
5.6964000000e+09,-59.396
5.6966000000e+09,-56.2551
5.6968000000e+09,-53.173
5.6970000000e+09,-51.3486
5.6972000000e+09,-50.7493
5.6974000000e+09,-51.1279
5.6976000000e+09,-52.0437
5.6978000000e+09,-52.7576
5.6980000000e+09,-52.6887
5.6982000000e+09,-52.0061
5.6984000000e+09,-51.0728
5.6986000000e+09,-50.0313
5.6988000000e+09,-49.0375
5.6990000000e+09,-48.3763
5.6992000000e+09,-48.3588
5.6994000000e+09,-49.2399
5.6996000000e+09,-51.1027
5.6998000000e+09,-53.0895
5.7000000000e+09,-52.5797
5.7002000000e+09,-50.2364
5.7004000000e+09,-48.2872
5.7006000000e+09,-47.0755
5.7008000000e+09,-46.4269
5.7010000000e+09,-46.1818
5.7012000000e+09,-46.2834
5.7014000000e+09,-46.7929
5.7016000000e+09,-47.905
5.7018000000e+09,-49.9998
5.7020000000e+09,-53.7447
5.7022000000e+09,-58.0015
5.7024000000e+09,-53.8148
5.7026000000e+09,-49.2438
5.7028000000e+09,-46.4684
5.7030000000e+09,-44.8449
5.7032000000e+09,-44.0149
5.7034000000e+09,-43.8065
5.7036000000e+09,-44.164
5.7038000000e+09,-45.1313
5.7040000000e+09,-46.8612
5.7042000000e+09,-49.6832
5.7044000000e+09,-54.4359
5.7046000000e+09,-63.0688
5.7048000000e+09,-57.083
5.7050000000e+09,-50.7005
5.7052000000e+09,-46.938
5.7054000000e+09,-44.5397
5.7056000000e+09,-43.1131
5.7058000000e+09,-42.4789
5.7060000000e+09,-42.5336
5.7062000000e+09,-43.2341
5.7064000000e+09,-44.6081
5.7066000000e+09,-46.7497
5.7068000000e+09,-49.7342
5.7070000000e+09,-53.1846
5.7072000000e+09,-55.4277
5.7074000000e+09,-55.8464
5.7076000000e+09,-56.3471
5.7078000000e+09,-57.5528
5.7080000000e+09,-58.599
5.7082000000e+09,-58.6492
5.7084000000e+09,-58.3516
5.7086000000e+09,-58.4032
5.7088000000e+09,-58.8642
5.7090000000e+09,-59.6378
5.7092000000e+09,-60.5486
5.7094000000e+09,-60.7037
5.7096000000e+09,-58.954
5.7098000000e+09,-56.2319
5.7100000000e+09,-53.8445
5.7102000000e+09,-52.2254
5.7104000000e+09,-51.468
5.7106000000e+09,-51.5756
5.7108000000e+09,-52.4672
5.7110000000e+09,-53.922
5.7112000000e+09,-55.6709
5.7114000000e+09,-57.938
5.7116000000e+09,-62.354
5.7118000000e+09,-75.1007
5.7120000000e+09,-60.4742
5.7122000000e+09,-54.184
5.7124000000e+09,-50.8323
5.7126000000e+09,-49.0279
5.7128000000e+09,-48.3125
5.7130000000e+09,-48.4139
5.7132000000e+09,-48.9755
5.7134000000e+09,-49.3985
5.7136000000e+09,-49.1068
5.7138000000e+09,-48.1366
5.7140000000e+09,-46.9525
5.7142000000e+09,-45.9603
5.7144000000e+09,-45.4516
5.7146000000e+09,-45.6636
5.7148000000e+09,-46.8317
5.7150000000e+09,-49.2915
5.7152000000e+09,-53.7995
5.7154000000e+09,-63.6882
5.7156000000e+09,-65.6468
5.7158000000e+09,-57.3204
5.7160000000e+09,-54.4727
5.7162000000e+09,-53.3129
5.7164000000e+09,-53.0979
5.7166000000e+09,-53.5834
5.7168000000e+09,-54.6482
5.7170000000e+09,-56.1647
5.7172000000e+09,-57.1087
5.7174000000e+09,-55.3792
5.7176000000e+09,-52.601
5.7178000000e+09,-50.8781
5.7180000000e+09,-50.7482
5.7182000000e+09,-52.6569
5.7184000000e+09,-58.3873
5.7186000000e+09,-71.8422
5.7188000000e+09,-55.1716
5.7190000000e+09,-50.4553
5.7192000000e+09,-48.3067
5.7194000000e+09,-47.533
5.7196000000e+09,-47.718
5.7198000000e+09,-48.6425
5.7200000000e+09,-50.1211
5.7202000000e+09,-51.9237
5.7204000000e+09,-53.7568
5.7206000000e+09,-55.2602
5.7208000000e+09,-55.9479
5.7210000000e+09,-55.5329
5.7212000000e+09,-54.4671
5.7214000000e+09,-53.3473
5.7216000000e+09,-52.3314
5.7218000000e+09,-51.3332
5.7220000000e+09,-50.3676
5.7222000000e+09,-49.6018
5.7224000000e+09,-49.1491
5.7226000000e+09,-48.9397
5.7228000000e+09,-48.799
5.7230000000e+09,-48.6748
5.7232000000e+09,-48.7323
5.7234000000e+09,-49.1633
5.7236000000e+09,-49.9387
5.7238000000e+09,-50.6543
5.7240000000e+09,-50.7428
5.7242000000e+09,-50.1839
5.7244000000e+09,-49.4619
5.7246000000e+09,-48.9269
5.7248000000e+09,-48.7129
5.7250000000e+09,-48.8695
5.7252000000e+09,-49.3534
5.7254000000e+09,-49.8932
5.7256000000e+09,-49.9837
5.7258000000e+09,-49.4167
5.7260000000e+09,-48.6743
5.7262000000e+09,-48.4181
5.7264000000e+09,-49.1872
5.7266000000e+09,-51.6612
5.7268000000e+09,-57.7656
5.7270000000e+09,-68.2091
5.7272000000e+09,-55.2259
5.7274000000e+09,-51.3586
5.7276000000e+09,-50.3424
5.7278000000e+09,-51.3027
5.7280000000e+09,-54.4255
5.7282000000e+09,-61.6491
5.7284000000e+09,-70.2623
5.7286000000e+09,-58.6108
5.7288000000e+09,-54.8005
5.7290000000e+09,-52.8837
5.7292000000e+09,-51.6217
5.7294000000e+09,-50.5444
5.7296000000e+09,-49.6118
5.7298000000e+09,-49.0811
5.7300000000e+09,-49.3443
5.7302000000e+09,-50.9153
5.7304000000e+09,-54.8725
5.7306000000e+09,-67.3347
5.7308000000e+09,-59.3432
5.7310000000e+09,-52.4131
5.7312000000e+09,-49.5215
5.7314000000e+09,-48.3386
5.7316000000e+09,-48.1365
5.7318000000e+09,-48.3572
5.7320000000e+09,-48.3536
5.7322000000e+09,-47.8036
5.7324000000e+09,-47.1268
5.7326000000e+09,-46.9663
5.7328000000e+09,-47.7914
5.7330000000e+09,-50.0273
5.7332000000e+09,-54.3808
5.7334000000e+09,-62.1211
5.7336000000e+09,-63.3264
5.7338000000e+09,-60.2674
5.7340000000e+09,-60.5112
5.7342000000e+09,-60.5979
5.7344000000e+09,-58.5872
5.7346000000e+09,-56.9549
5.7348000000e+09,-56.1283
5.7350000000e+09,-55.254
5.7352000000e+09,-54.1638
5.7354000000e+09,-53.4546
5.7356000000e+09,-53.3721
5.7358000000e+09,-53.5288
5.7360000000e+09,-53.3018
5.7362000000e+09,-52.7285
5.7364000000e+09,-52.4358
5.7366000000e+09,-52.8672
5.7368000000e+09,-54.1392
5.7370000000e+09,-55.8986
5.7372000000e+09,-56.4811
5.7374000000e+09,-54.5959
5.7376000000e+09,-52.166
5.7378000000e+09,-50.462
5.7380000000e+09,-49.6769
5.7382000000e+09,-49.747
5.7384000000e+09,-50.5296
5.7386000000e+09,-51.8189
5.7388000000e+09,-53.4632
5.7390000000e+09,-55.6518
5.7392000000e+09,-58.6202
5.7394000000e+09,-58.3102
5.7396000000e+09,-53.3516
5.7398000000e+09,-49.4225
5.7400000000e+09,-46.9688
5.7402000000e+09,-45.6793
5.7404000000e+09,-45.3386
5.7406000000e+09,-45.8016
5.7408000000e+09,-46.9367
5.7410000000e+09,-48.4982
5.7412000000e+09,-49.8734
5.7414000000e+09,-50.3265
5.7416000000e+09,-50.1714
5.7418000000e+09,-50.3576
5.7420000000e+09,-51.387
5.7422000000e+09,-53.2573
5.7424000000e+09,-55.3046
5.7426000000e+09,-55.9113
5.7428000000e+09,-54.4877
5.7430000000e+09,-52.4256
5.7432000000e+09,-50.7407
5.7434000000e+09,-49.8646
5.7436000000e+09,-50.0867
5.7438000000e+09,-51.8421
5.7440000000e+09,-56.3434
5.7442000000e+09,-69.9324
5.7444000000e+09,-57.6123
5.7446000000e+09,-51.908
5.7448000000e+09,-49.3346
5.7450000000e+09,-48.2012
5.7452000000e+09,-47.8798
5.7454000000e+09,-48.0115
5.7456000000e+09,-48.4027
5.7458000000e+09,-49.0146
5.7460000000e+09,-49.8715
5.7462000000e+09,-50.9048
5.7464000000e+09,-51.8601
5.7466000000e+09,-52.3705
5.7468000000e+09,-52.129
5.7470000000e+09,-51.098
5.7472000000e+09,-49.6831
5.7474000000e+09,-48.4326
5.7476000000e+09,-47.6747
5.7478000000e+09,-47.5076
5.7480000000e+09,-47.896
5.7482000000e+09,-48.7263
5.7484000000e+09,-49.8465
5.7486000000e+09,-51.1231
5.7488000000e+09,-52.4627
5.7490000000e+09,-53.725
5.7492000000e+09,-54.741
5.7494000000e+09,-55.726
5.7496000000e+09,-57.4086
5.7498000000e+09,-60.3117
5.7500000000e+09,-62.1702
5.7502000000e+09,-60.4855
5.7504000000e+09,-60.0967
5.7506000000e+09,-64.1805
5.7508000000e+09,-75.0153
5.7510000000e+09,-58.8517
5.7512000000e+09,-53.7971
5.7514000000e+09,-51.4972
